Added Pin To Net: NetName=NetQ11_2 Pin=Q11-2
Added Pin To Net: NetName=NetQ11_2 Pin=Q12-3
Added Pin To Net: NetName=NetQ11_2 Pin=R11-1
Added Net: Name=NetQ11_2
Added Member To Class: ClassName=Differential Amplifier Member=Component DR? 6-32 DRILL HOLE
Added Member To Class: ClassName=Differential Amplifier Member=Component DR? 6-32 DRILL HOLE
Added Member To Class: ClassName=Differential Amplifier Member=Component DR? 6-32 DRILL HOLE
Added Room: Name=Differential Amplifier
